10 6
0 2
4 0
6 8
3 3
9 0
3 5
14 11
2 8
3 4
7 8
1 2
4 8
5 9
1 6
7 10
0 8
11 10
0 9
9 9
6 7
2 0
4 0
7 3
8 4
1 2
4 3
8 12
9 1
1 8
5 9
0 0
4 3
1 9
7 6
4 0
0 11
1 7
9 12
11 12
7 5
5 1
7 11
3 1
6 5
4 1
2 2
0 10
2 9
2 13
1 5
2 14
4 13
1 14
3 13
0 14
1 0
1 3
0 8
0 3
0 1
0 0
0 1
1 0
0 0
