17
0 83 86 77 15 93 35 86 92 49 21 62 27 90 59 63 26 
83 0 40 26 72 36 11 68 67 29 82 30 62 23 67 35 29 
86 40 0 2 22 58 69 67 93 56 11 42 29 73 21 19 84 
77 26 2 0 37 98 24 15 70 13 26 91 80 56 73 62 70 
15 72 22 37 0 96 81 5 25 84 27 36 5 46 29 13 57 
93 36 58 98 96 0 24 95 82 45 14 67 34 64 43 50 87 
35 11 69 24 81 24 0 8 76 78 88 84 3 51 54 99 32 
86 68 67 15 5 95 8 0 60 76 68 39 12 26 86 94 39 
92 67 93 70 25 82 76 60 0 95 70 34 78 67 1 97 2 
49 29 56 13 84 45 78 76 95 0 17 92 52 56 1 80 86 
21 82 11 26 27 14 88 68 70 17 0 41 65 89 44 19 40 
62 30 42 91 36 67 84 39 34 92 41 0 29 31 17 97 71 
27 62 29 80 5 34 3 12 78 52 65 29 0 81 75 9 27 
90 23 73 56 46 64 51 26 67 56 89 31 81 0 67 56 97 
59 67 21 73 29 43 54 86 1 1 44 17 75 67 0 53 86 
63 35 19 62 13 50 99 94 97 80 19 97 9 56 53 0 65 
26 29 84 70 57 87 32 39 2 86 40 71 27 97 86 65 0 
