...C.MATUIDI.KJAR..
KROOS.L....N..O.O..
A..S..V.V..I..N.N..
N..T..ERIKSEN.A.A.S
T.RAMOS.D..S..SILVA
E.O..Z.PAYET....D.N
.MODRIC.L..AGUERO.C
B.N..L.D.......I..H
E.E.C.BELLERIN.BALE
NEYMAR.M.U.....E..Z
Z...V..B.K..SUAREZ.
E..FABREGAS.M..Y...
M.H.N..L.K.KANE....
ADURIZ.E.U..L..M.R.
..M...R.P.HULK.U.O.
L.MARCELO...I.ALABA
A.E...U.GODIN..L.B.
H.L...S.B...GIMENEZ
MESSI..VARDY...R.N.
